state_machine_tb.vcd
$date
  Wed Jun 07 22:17:38 2023
$end
$version
  GHDL v0
$end
$timescale
  1 fs
$end
$var reg 1 ! clk $end
$var reg 1 " reset $end
$var reg 1 # pino1 $end
$var reg 1 $ pino2 $end
$var reg 1 % pino3 $end
$var reg 1 & pino4 $end
$var reg 1 ' pino5 $end
$var reg 1 ( pino6 $end
$var reg 1 ) pino7 $end
$var reg 7 * display[6:0] $end
$var reg 1 + produto_dispensado $end
$var reg 4 , valor_moedas_inseridas[3:0] $end
$scope module dut $end
$var reg 1 - clk $end
$var reg 1 . reset $end
$var reg 1 / pino1 $end
$var reg 1 0 pino2 $end
$var reg 1 1 pino3 $end
$var reg 1 2 pino4 $end
$var reg 1 3 pino5 $end
$var reg 1 4 pino6 $end
$var reg 1 5 pino7 $end
$var reg 7 6 display[6:0] $end
$var reg 1 7 produto_dispensado $end
$comment state is not handled $end
$var reg 1 8 clk_div $end
$var integer 32 9 clk_count $end
$var integer 32 : valor_moedas_inseridas $end
$upscope $end
$enddefinitions $end
#0
0!
1"
0#
0$
0%
0&
0'
0(
0)
bUUUUUUU *
U+
b0000 ,
0-
1.
0/
00
01
02
03
04
05
bUUUUUUU 6
U7
U8
b0 9
b0 :
#5000000
1!
1-
#10000000
0!
0"
0-
0.
#15000000
1!
1-
b1 9
#20000000
0!
1#
0-
1/
#25000000
1!
1-
b10 9
#30000000
0!
0#
0-
0/
#35000000
1!
1-
b11 9
#40000000
0!
1&
0-
12
#45000000
1!
1-
b100 9
#50000000
0!
0&
0-
02
#55000000
1!
1-
b101 9
#60000000
0!
1(
0-
14
#65000000
1!
1-
b110 9
#70000000
0!
0(
0-
04
#75000000
1!
1-
b111 9
#80000000
0!
0-
#85000000
1!
1-
b1000 9
#90000000
0!
b1001 ,
0-
#95000000
1!
1-
b1001 9
#100000000
0!
0-
#105000000
1!
1-
b1010 9
#110000000
0!
0-
#115000000
1!
1-
b1011 9
#120000000
0!
0-
#125000000
1!
1-
b1100 9
#130000000
0!
0-
#135000000
1!
1-
b1101 9
#140000000
0!
0-
#145000000
1!
1-
b1110 9
#150000000
0!
0-
#155000000
1!
1-
b1111 9
#160000000
0!
0-
#165000000
1!
1-
b10000 9
#170000000
0!
0-
#175000000
1!
1-
b10001 9
#180000000
0!
0-
#185000000
1!
1-
b10010 9
#190000000
0!
0-
#195000000
1!
1-
b10011 9
#200000000
0!
0-
#205000000
1!
1-
b10100 9
#210000000
0!
0-
#215000000
1!
1-
b10101 9
#220000000
0!
0-
#225000000
1!
1-
b10110 9
#230000000
0!
0-
#235000000
1!
1-
b10111 9
#240000000
0!
0-
#245000000
1!
1-
b11000 9
#250000000
0!
0-
#255000000
1!
1-
b11001 9
#260000000
0!
0-
#265000000
1!
1-
b11010 9
#270000000
0!
0-
#275000000
1!
1-
b11011 9
#280000000
0!
0-
#285000000
1!
1-
b11100 9
#290000000
0!
0-
#295000000
1!
1-
b11101 9
#300000000
0!
0-
#305000000
1!
1-
b11110 9
#310000000
0!
0-
#315000000
1!
1-
b11111 9
#320000000
0!
0-
#325000000
1!
1-
b100000 9
#330000000
0!
0-
#335000000
1!
1-
b100001 9
#340000000
0!
0-
#345000000
1!
1-
b100010 9
#350000000
0!
0-
#355000000
1!
1-
b100011 9
#360000000
0!
0-
#365000000
1!
1-
b100100 9
#370000000
0!
0-
#375000000
1!
1-
b100101 9
#380000000
0!
0-
#385000000
1!
1-
b100110 9
#390000000
0!
0-
#395000000
1!
1-
b100111 9
#400000000
0!
0-
#405000000
1!
1-
b101000 9
#410000000
0!
0-
#415000000
1!
1-
b101001 9
#420000000
0!
0-
#425000000
1!
1-
b101010 9
#430000000
0!
0-
#435000000
1!
1-
b101011 9
#440000000
0!
0-
#445000000
1!
1-
b101100 9
#450000000
0!
0-
#455000000
1!
1-
b101101 9
#460000000
0!
0-
#465000000
1!
1-
b101110 9
#470000000
0!
0-
#475000000
1!
1-
b101111 9
#480000000
0!
0-
#485000000
1!
1-
b110000 9
#490000000
0!
0-
#495000000
1!
1-
b110001 9
#500000000
0!
0-
#505000000
1!
1-
b110010 9
#510000000
0!
0-
#515000000
1!
1-
b110011 9
#520000000
0!
0-
#525000000
1!
1-
b110100 9
#530000000
0!
0-
#535000000
1!
1-
b110101 9
#540000000
0!
0-
#545000000
1!
1-
b110110 9
#550000000
0!
0-
#555000000
1!
1-
b110111 9
#560000000
0!
0-
#565000000
1!
1-
b111000 9
#570000000
0!
0-
#575000000
1!
1-
b111001 9
#580000000
0!
0-
#585000000
1!
1-
b111010 9
#590000000
0!
0-
#595000000
1!
1-
b111011 9
#600000000
0!
0-
#605000000
1!
1-
b111100 9
#610000000
0!
0-
#615000000
1!
1-
b111101 9
#620000000
0!
0-
#625000000
1!
1-
b111110 9
#630000000
0!
0-
#635000000
1!
1-
b111111 9
#640000000
0!
0-
#645000000
1!
1-
b1000000 9
#650000000
0!
0-
#655000000
1!
1-
b1000001 9
#660000000
0!
0-
#665000000
1!
1-
b1000010 9
#670000000
0!
0-
#675000000
1!
1-
b1000011 9
#680000000
0!
0-
#685000000
1!
1-
b1000100 9
#690000000
0!
0-
#695000000
1!
1-
b1000101 9
#700000000
0!
0-
#705000000
1!
1-
b1000110 9
#710000000
0!
0-
#715000000
1!
1-
b1000111 9
#720000000
0!
0-
#725000000
1!
1-
b1001000 9
#730000000
0!
0-
#735000000
1!
1-
b1001001 9
#740000000
0!
0-
#745000000
1!
1-
b1001010 9
#750000000
0!
0-
#755000000
1!
1-
b1001011 9
#760000000
0!
0-
#765000000
1!
1-
b1001100 9
#770000000
0!
0-
#775000000
1!
1-
b1001101 9
#780000000
0!
0-
#785000000
1!
1-
b1001110 9
#790000000
0!
0-
#795000000
1!
1-
b1001111 9
#800000000
0!
0-
#805000000
1!
1-
b1010000 9
#810000000
0!
0-
#815000000
1!
1-
b1010001 9
#820000000
0!
0-
#825000000
1!
1-
b1010010 9
#830000000
0!
0-
#835000000
1!
1-
b1010011 9
#840000000
0!
0-
#845000000
1!
1-
b1010100 9
#850000000
0!
0-
#855000000
1!
1-
b1010101 9
#860000000
0!
0-
#865000000
1!
1-
b1010110 9
#870000000
0!
0-
#875000000
1!
1-
b1010111 9
#880000000
0!
0-
#885000000
1!
1-
b1011000 9
#890000000
0!
0-
#895000000
1!
1-
b1011001 9
#900000000
0!
0-
#905000000
1!
1-
b1011010 9
#910000000
0!
0-
#915000000
1!
1-
b1011011 9
#920000000
0!
0-
#925000000
1!
1-
b1011100 9
#930000000
0!
0-
#935000000
1!
1-
b1011101 9
#940000000
0!
0-
#945000000
1!
1-
b1011110 9
#950000000
0!
0-
#955000000
1!
1-
b1011111 9
#960000000
0!
0-
#965000000
1!
1-
b1100000 9
#970000000
0!
0-
#975000000
1!
1-
b1100001 9
#980000000
0!
0-
#985000000
1!
1-
b1100010 9
#990000000
0!
0-
#995000000
1!
1-
b1100011 9
